…
#Question 2:What direction has the highest median speed at each airport? Make a table and a plot of median wind speed by direction, for each airport.

#sort the median wind speed for each direction for each airport
median <- filtered_wind_speed %>%
  group_by(origin, wind_dir) %>% #Split
  summarize (
    speed=median(wind_speed, na.rm=TRUE) #Apply
  )
#combine
median
```

    ## Source: local data frame [114 x 3]
    ## Groups: origin [?]
    ## 
    ##    origin wind_dir    speed
    ##     <chr>    <dbl>    <dbl>
    ## 1     EWR        0  0.00000
    ## 2     EWR       10  9.20624
    ## 3     EWR       20  9.20624
    ## 4     EWR       30  9.20624
    ## 5     EWR       40 10.35702
    ## 6     EWR       50  8.05546
    ## 7     EWR       60  8.05546
    ## 8     EWR       70  6.90468
    ## 9     EWR       80  6.90468
    ## 10    EWR       90  6.32929
    ## # ... with 104 more rows
…
``` r
#Question 3:Make a table with two columns: airline name (not carrier code) and median distance flown from JFK airport. The table should be arranged in order of decreasing mean flight distance.

#look at the data
nycflights13::flights
```

    ## # A tibble: 336,776 × 19
    ##     year month   day dep_time sched_dep_time dep_delay arr_time
    ##    <int> <int> <int>    <int>          <int>     <dbl>    <int>
    ## 1   2013     1     1      517            515         2      830
    ## 2   2013     1     1      533            529         4      850
    ## 3   2013     1     1      542            540         2      923
    ## 4   2013     1     1      544            545        -1     1004
    ## 5   2013     1     1      554            600        -6      812
    ## 6   2013     1     1      554            558        -4      740
    ## 7   2013     1     1      555            600        -5      913
    ## 8   2013     1     1      557            600        -3      709
    ## 9   2013     1     1      557            600        -3      838
    ## 10  2013     1     1      558            600        -2      753
    ## # ... with 336,766 more rows, and 12 more variables: sched_arr_time <int>,
    ## #   arr_delay <dbl>, carrier <chr>, flight <int>, tailnum <chr>,
    ## #   origin <chr>, dest <chr>, air_time <dbl>, distance <dbl>, hour <dbl>,
    ## #   minute <dbl>, time_hour <dttm>
…
``` r
#Question 4: Make a wide-format data frame that displays the number of flights that leave Newark ("EWR") airport each month, from each airline.

#Split-Apply-Combine to SPLIT the data into groups based on airlines and month and filter to only use EWR data, APPLY the mean function to the data, and COMBINE the data into a wise format table.
EWR <- nycflights13::flights%>% #define the data set to pipe into the next step
  filter(origin =="EWR") %>% #filter the planes that left EWR
  group_by(carrier, month) %>% #Split into groups based on month and carrier
  summarize(n=n()) #applies a count function to the groups
EWR #look at the table
```

    ## Source: local data frame [131 x 3]
    ## Groups: carrier [?]
    ## 
    ##    carrier month     n
    ##      <chr> <int> <int>
    ## 1       9E     1    82
    ## 2       9E     2    75
    ## 3       9E     3    91
    ## 4       9E     4    88
    ## 5       9E     5   103
    ## 6       9E     6    88
    ## 7       9E     7    94
    ## 8       9E     8    96
    ## 9       9E     9    87
    ## 10      9E    10   146
    ## # ... with 121 more rows
…
#need to preserve only the names that appear in the top 10
top10_all <- top10 %>%
  left_join(babynames, by="name", na.rm=TRUE)
top10_all
```

    ## Source: local data frame [3,753 x 6]
    ## Groups: sex2 [?]
    ## 
    ##     name  sex2  year   sex     n         prop
    ##    <chr> <chr> <dbl> <chr> <int>        <dbl>
    ## 1   Emma     F  1880     F  2003 2.052149e-02
    ## 2   Emma     F  1880     M    10 8.445946e-05
    ## 3   Emma     F  1881     F  2034 2.057538e-02
    ## 4   Emma     F  1881     M     9 8.311477e-05
    ## 5   Emma     F  1882     F  2303 1.990527e-02
    ## 6   Emma     F  1882     M     7 5.736153e-05
    ## 7   Emma     F  1883     F  2367 1.971449e-02
    ## 8   Emma     F  1883     M     7 6.223329e-05
    ## 9   Emma     F  1884     F  2587 1.880251e-02
    ## 10  Emma     F  1884     M     9 7.332513e-05
    ## # ... with 3,743 more rows
…
